// Jest Snapshot v1, https://goo.gl/fbAQLP

exports[`CoinPage tests should render CoinPage snapshot correctly 1`] = `
<div
  className="ui stackable vertically divided grid m-left-6 p-top-2 coin-page h-100 p-right-md-6"
>
  <div
    className="centered one column row"
  >
    <div
      className="column"
    >
      <h1
        className="c-white"
      >
        Cipto APP
      </h1>
      <div
        className="f f-justify-between"
      >
        <div
          className="ui search"
          onBlur={[Function]}
          onFocus={[Function]}
          onMouseDown={[Function]}
        >
          <div
            className="ui icon input"
          >
            <input
              autoComplete="off"
              className="prompt"
              onChange={[Function]}
              onClick={[Function]}
              tabIndex="0"
              type="text"
              value=""
            />
            <i
              aria-hidden="true"
              className="search icon"
            />
          </div>
          <div
            className="results transition"
          >
            <div
              className="message empty"
            >
              <div
                className="header"
              >
                No results found.
              </div>
            </div>
          </div>
        </div>
        <div
          className="f f-align-center"
        >
          <button
            className="sc-bxivhb gYXnJT"
            color="#009BAA"
            onClick={[Function]}
          />
          <button
            className="sc-bxivhb btIamw"
            color="#009B46"
            onClick={[Function]}
          />
          <button
            className="sc-bxivhb iKMGNr"
            color="#002814"
            onClick={[Function]}
          />
        </div>
      </div>
    </div>
  </div>
  <div
    className="centered two column row"
  >
    <div
      className="column"
      style={
        Object {
          "color": "white",
        }
      }
    >
      <h2>
        Realize uma busca
      </h2>
    </div>
    <div
      className="column"
    >
      <div
        className="ui segment coins"
      >
        <div
          className="ui header"
        >
          Criptmoedas:
        </div>
        <ul>
          <li
            className="coins__item f f-justify-between"
          >
            <span
              className="m-2"
            >
              BTC
            </span>
            <span
              className="m-2"
            >
              3489.77965625
            </span>
          </li>
          <li
            className="coins__item f f-justify-between"
          >
            <span
              className="m-2"
            >
              XRP
            </span>
            <span
              className="m-2"
            >
              0.3078642881
            </span>
          </li>
          <li
            className="coins__item f f-justify-between"
          >
            <span
              className="m-2"
            >
              ETH
            </span>
            <span
              className="m-2"
            >
              108.361642638
            </span>
          </li>
          <li
            className="coins__item f f-justify-between"
          >
            <span
              className="m-2"
            >
              EOS
            </span>
            <span
              className="m-2"
            >
              2.3363367997
            </span>
          </li>
          <li
            className="coins__item f f-justify-between"
          >
            <span
              className="m-2"
            >
              BCH
            </span>
            <span
              className="m-2"
            >
              120.14877256
            </span>
          </li>
          <li
            className="coins__item f f-justify-between"
          >
            <span
              className="m-2"
            >
              USDT
            </span>
            <span
              className="m-2"
            >
              1.0043211181
            </span>
          </li>
          <li
            className="coins__item f f-justify-between"
          >
            <span
              className="m-2"
            >
              LTC
            </span>
            <span
              className="m-2"
            >
              33.3639979495
            </span>
          </li>
          <li
            className="coins__item f f-justify-between"
          >
            <span
              className="m-2"
            >
              TRX
            </span>
            <span
              className="m-2"
            >
              0.0258797738
            </span>
          </li>
          <li
            className="coins__item f f-justify-between"
          >
            <span
              className="m-2"
            >
              XLM
            </span>
            <span
              className="m-2"
            >
              0.0824966374
            </span>
          </li>
          <li
            className="coins__item f f-justify-between"
          >
            <span
              className="m-2"
            >
              BSV
            </span>
            <span
              className="m-2"
            >
              65.1028895542
            </span>
          </li>
          <li
            className="coins__item f f-justify-between"
          >
            <span
              className="m-2"
            >
              ADA
            </span>
            <span
              className="m-2"
            >
              0.038707819
            </span>
          </li>
          <li
            className="coins__item f f-justify-between"
          >
            <span
              className="m-2"
            >
              BNB
            </span>
            <span
              className="m-2"
            >
              6.8421030484
            </span>
          </li>
          <li
            className="coins__item f f-justify-between"
          >
            <span
              className="m-2"
            >
              XMR
            </span>
            <span
              className="m-2"
            >
              43.1820653244
            </span>
          </li>
          <li
            className="coins__item f f-justify-between"
          >
            <span
              className="m-2"
            >
              MIOTA
            </span>
            <span
              className="m-2"
            >
              0.2513523273
            </span>
          </li>
          <li
            className="coins__item f f-justify-between"
          >
            <span
              className="m-2"
            >
              DASH
            </span>
            <span
              className="m-2"
            >
              67.1726430075
            </span>
          </li>
          <li
            className="coins__item f f-justify-between"
          >
            <span
              className="m-2"
            >
              NEO
            </span>
            <span
              className="m-2"
            >
              7.1538840984
            </span>
          </li>
          <li
            className="coins__item f f-justify-between"
          >
            <span
              className="m-2"
            >
              ETC
            </span>
            <span
              className="m-2"
            >
              3.9521242893
            </span>
          </li>
          <li
            className="coins__item f f-justify-between"
          >
            <span
              className="m-2"
            >
              XEM
            </span>
            <span
              className="m-2"
            >
              0.0406658963
            </span>
          </li>
          <li
            className="coins__item f f-justify-between"
          >
            <span
              className="m-2"
            >
              USDC
            </span>
            <span
              className="m-2"
            >
              1.0144512139
            </span>
          </li>
          <li
            className="coins__item f f-justify-between"
          >
            <span
              className="m-2"
            >
              ZEC
            </span>
            <span
              className="m-2"
            >
              49.3043497817
            </span>
          </li>
          <li
            className="coins__item f f-justify-between"
          >
            <span
              className="m-2"
            >
              WAVES
            </span>
            <span
              className="m-2"
            >
              2.7222034241
            </span>
          </li>
          <li
            className="coins__item f f-justify-between"
          >
            <span
              className="m-2"
            >
              MKR
            </span>
            <span
              className="m-2"
            >
              369.725990367
            </span>
          </li>
          <li
            className="coins__item f f-justify-between"
          >
            <span
              className="m-2"
            >
              XTZ
            </span>
            <span
              className="m-2"
            >
              0.3812904766
            </span>
          </li>
          <li
            className="coins__item f f-justify-between"
          >
            <span
              className="m-2"
            >
              DOGE
            </span>
            <span
              className="m-2"
            >
              0.0019374003
            </span>
          </li>
          <li
            className="coins__item f f-justify-between"
          >
            <span
              className="m-2"
            >
              VET
            </span>
            <span
              className="m-2"
            >
              0.0038967345
            </span>
          </li>
          <li
            className="coins__item f f-justify-between"
          >
            <span
              className="m-2"
            >
              TUSD
            </span>
            <span
              className="m-2"
            >
              1.0148112247
            </span>
          </li>
          <li
            className="coins__item f f-justify-between"
          >
            <span
              className="m-2"
            >
              ONT
            </span>
            <span
              className="m-2"
            >
              0.5461775523
            </span>
          </li>
          <li
            className="coins__item f f-justify-between"
          >
            <span
              className="m-2"
            >
              BTG
            </span>
            <span
              className="m-2"
            >
              10.0633799311
            </span>
          </li>
          <li
            className="coins__item f f-justify-between"
          >
            <span
              className="m-2"
            >
              QTUM
            </span>
            <span
              className="m-2"
            >
              1.8480857379
            </span>
          </li>
          <li
            className="coins__item f f-justify-between"
          >
            <span
              className="m-2"
            >
              REP
            </span>
            <span
              className="m-2"
            >
              14.4783077634
            </span>
          </li>
          <li
            className="coins__item f f-justify-between"
          >
            <span
              className="m-2"
            >
              HOT
            </span>
            <span
              className="m-2"
            >
              0.0011853267
            </span>
          </li>
          <li
            className="coins__item f f-justify-between"
          >
            <span
              className="m-2"
            >
              OMG
            </span>
            <span
              className="m-2"
            >
              1.0845747578
            </span>
          </li>
          <li
            className="coins__item f f-justify-between"
          >
            <span
              className="m-2"
            >
              ZIL
            </span>
            <span
              className="m-2"
            >
              0.0180911687
            </span>
          </li>
          <li
            className="coins__item f f-justify-between"
          >
            <span
              className="m-2"
            >
              DCR
            </span>
            <span
              className="m-2"
            >
              15.8371103315
            </span>
          </li>
          <li
            className="coins__item f f-justify-between"
          >
            <span
              className="m-2"
            >
              ZRX
            </span>
            <span
              className="m-2"
            >
              0.2495141472
            </span>
          </li>
          <li
            className="coins__item f f-justify-between"
          >
            <span
              className="m-2"
            >
              LINK
            </span>
            <span
              className="m-2"
            >
              0.4077282227
            </span>
          </li>
          <li
            className="coins__item f f-justify-between"
          >
            <span
              className="m-2"
            >
              BAT
            </span>
            <span
              className="m-2"
            >
              0.1119137514
            </span>
          </li>
          <li
            className="coins__item f f-justify-between"
          >
            <span
              className="m-2"
            >
              LSK
            </span>
            <span
              className="m-2"
            >
              1.1233104731
            </span>
          </li>
          <li
            className="coins__item f f-justify-between"
          >
            <span
              className="m-2"
            >
              PAX
            </span>
            <span
              className="m-2"
            >
              1.0104407444
            </span>
          </li>
          <li
            className="coins__item f f-justify-between"
          >
            <span
              className="m-2"
            >
              NANO
            </span>
            <span
              className="m-2"
            >
              0.8610152832
            </span>
          </li>
          <li
            className="coins__item f f-justify-between"
          >
            <span
              className="m-2"
            >
              BCD
            </span>
            <span
              className="m-2"
            >
              0.716018369
            </span>
          </li>
          <li
            className="coins__item f f-justify-between"
          >
            <span
              className="m-2"
            >
              BCN
            </span>
            <span
              className="m-2"
            >
              0.0005819968
            </span>
          </li>
          <li
            className="coins__item f f-justify-between"
          >
            <span
              className="m-2"
            >
              DGB
            </span>
            <span
              className="m-2"
            >
              0.0089983988
            </span>
          </li>
          <li
            className="coins__item f f-justify-between"
          >
            <span
              className="m-2"
            >
              BTS
            </span>
            <span
              className="m-2"
            >
              0.0379467728
            </span>
          </li>
          <li
            className="coins__item f f-justify-between"
          >
            <span
              className="m-2"
            >
              NPXS
            </span>
            <span
              className="m-2"
            >
              0.0005609134
            </span>
          </li>
          <li
            className="coins__item f f-justify-between"
          >
            <span
              className="m-2"
            >
              ICX
            </span>
            <span
              className="m-2"
            >
              0.1914201752
            </span>
          </li>
          <li
            className="coins__item f f-justify-between"
          >
            <span
              className="m-2"
            >
              XVG
            </span>
            <span
              className="m-2"
            >
              0.0059643088
            </span>
          </li>
          <li
            className="coins__item f f-justify-between"
          >
            <span
              className="m-2"
            >
              GUSD
            </span>
            <span
              className="m-2"
            >
              1.0092746332
            </span>
          </li>
          <li
            className="coins__item f f-justify-between"
          >
            <span
              className="m-2"
            >
              SC
            </span>
            <span
              className="m-2"
            >
              0.0022700506
            </span>
          </li>
          <li
            className="coins__item f f-justify-between"
          >
            <span
              className="m-2"
            >
              STEEM
            </span>
            <span
              className="m-2"
            >
              0.281291096
            </span>
          </li>
          <li
            className="coins__item f f-justify-between"
          >
            <span
              className="m-2"
            >
              AE
            </span>
            <span
              className="m-2"
            >
              0.3714688295
            </span>
          </li>
          <li
            className="coins__item f f-justify-between"
          >
            <span
              className="m-2"
            >
              STRAT
            </span>
            <span
              className="m-2"
            >
              0.8422111156
            </span>
          </li>
          <li
            className="coins__item f f-justify-between"
          >
            <span
              className="m-2"
            >
              R
            </span>
            <span
              className="m-2"
            >
              0.1607632016
            </span>
          </li>
          <li
            className="coins__item f f-justify-between"
          >
            <span
              className="m-2"
            >
              DAI
            </span>
            <span
              className="m-2"
            >
              1.0114357493
            </span>
          </li>
          <li
            className="coins__item f f-justify-between"
          >
            <span
              className="m-2"
            >
              BTM
            </span>
            <span
              className="m-2"
            >
              0.0756882101
            </span>
          </li>
          <li
            className="coins__item f f-justify-between"
          >
            <span
              className="m-2"
            >
              KMD
            </span>
            <span
              className="m-2"
            >
              0.6518393742
            </span>
          </li>
          <li
            className="coins__item f f-justify-between"
          >
            <span
              className="m-2"
            >
              IOST
            </span>
            <span
              className="m-2"
            >
              0.0057912007
            </span>
          </li>
          <li
            className="coins__item f f-justify-between"
          >
            <span
              className="m-2"
            >
              SNT
            </span>
            <span
              className="m-2"
            >
              0.0190138438
            </span>
          </li>
          <li
            className="coins__item f f-justify-between"
          >
            <span
              className="m-2"
            >
              PPT
            </span>
            <span
              className="m-2"
            >
              1.1963790872
            </span>
          </li>
          <li
            className="coins__item f f-justify-between"
          >
            <span
              className="m-2"
            >
              ETN
            </span>
            <span
              className="m-2"
            >
              0.0069134264
            </span>
          </li>
          <li
            className="coins__item f f-justify-between"
          >
            <span
              className="m-2"
            >
              AOA
            </span>
            <span
              className="m-2"
            >
              0.0089579477
            </span>
          </li>
          <li
            className="coins__item f f-justify-between"
          >
            <span
              className="m-2"
            >
              CNX
            </span>
            <span
              className="m-2"
            >
              1.0013157465
            </span>
          </li>
          <li
            className="coins__item f f-justify-between"
          >
            <span
              className="m-2"
            >
              REPO
            </span>
            <span
              className="m-2"
            >
              0.506099316
            </span>
          </li>
          <li
            className="coins__item f f-justify-between"
          >
            <span
              className="m-2"
            >
              GNT
            </span>
            <span
              className="m-2"
            >
              0.0560757649
            </span>
          </li>
          <li
            className="coins__item f f-justify-between"
          >
            <span
              className="m-2"
            >
              FCT
            </span>
            <span
              className="m-2"
            >
              6.0757733619
            </span>
          </li>
          <li
            className="coins__item f f-justify-between"
          >
            <span
              className="m-2"
            >
              ARDR
            </span>
            <span
              className="m-2"
            >
              0.0531806357
            </span>
          </li>
          <li
            className="coins__item f f-justify-between"
          >
            <span
              className="m-2"
            >
              ODE
            </span>
            <span
              className="m-2"
            >
              0.2264769383
            </span>
          </li>
          <li
            className="coins__item f f-justify-between"
          >
            <span
              className="m-2"
            >
              MAID
            </span>
            <span
              className="m-2"
            >
              0.1054316983
            </span>
          </li>
          <li
            className="coins__item f f-justify-between"
          >
            <span
              className="m-2"
            >
              INB
            </span>
            <span
              className="m-2"
            >
              0.286125705
            </span>
          </li>
          <li
            className="coins__item f f-justify-between"
          >
            <span
              className="m-2"
            >
              HT
            </span>
            <span
              className="m-2"
            >
              0.9393528133
            </span>
          </li>
          <li
            className="coins__item f f-justify-between"
          >
            <span
              className="m-2"
            >
              LRC
            </span>
            <span
              className="m-2"
            >
              0.0565901592
            </span>
          </li>
          <li
            className="coins__item f f-justify-between"
          >
            <span
              className="m-2"
            >
              ARK
            </span>
            <span
              className="m-2"
            >
              0.3922538832
            </span>
          </li>
          <li
            className="coins__item f f-justify-between"
          >
            <span
              className="m-2"
            >
              XIN
            </span>
            <span
              className="m-2"
            >
              94.173827285
            </span>
          </li>
          <li
            className="coins__item f f-justify-between"
          >
            <span
              className="m-2"
            >
              THETA
            </span>
            <span
              className="m-2"
            >
              0.0578278819
            </span>
          </li>
          <li
            className="coins__item f f-justify-between"
          >
            <span
              className="m-2"
            >
              HC
            </span>
            <span
              className="m-2"
            >
              0.9088620834
            </span>
          </li>
          <li
            className="coins__item f f-justify-between"
          >
            <span
              className="m-2"
            >
              WTC
            </span>
            <span
              className="m-2"
            >
              0.9418727497
            </span>
          </li>
          <li
            className="coins__item f f-justify-between"
          >
            <span
              className="m-2"
            >
              LKY
            </span>
            <span
              className="m-2"
            >
              0.7667484412
            </span>
          </li>
          <li
            className="coins__item f f-justify-between"
          >
            <span
              className="m-2"
            >
              PIVX
            </span>
            <span
              className="m-2"
            >
              0.6664487256
            </span>
          </li>
          <li
            className="coins__item f f-justify-between"
          >
            <span
              className="m-2"
            >
              MANA
            </span>
            <span
              className="m-2"
            >
              0.0349689202
            </span>
          </li>
          <li
            className="coins__item f f-justify-between"
          >
            <span
              className="m-2"
            >
              NEXO
            </span>
            <span
              className="m-2"
            >
              0.0650362425
            </span>
          </li>
          <li
            className="coins__item f f-justify-between"
          >
            <span
              className="m-2"
            >
              RDD
            </span>
            <span
              className="m-2"
            >
              0.0012380115
            </span>
          </li>
          <li
            className="coins__item f f-justify-between"
          >
            <span
              className="m-2"
            >
              EURS
            </span>
            <span
              className="m-2"
            >
              1.1152456741
            </span>
          </li>
          <li
            className="coins__item f f-justify-between"
          >
            <span
              className="m-2"
            >
              PAI
            </span>
            <span
              className="m-2"
            >
              0.0305725573
            </span>
          </li>
          <li
            className="coins__item f f-justify-between"
          >
            <span
              className="m-2"
            >
              KCS
            </span>
            <span
              className="m-2"
            >
              0.3722882179
            </span>
          </li>
          <li
            className="coins__item f f-justify-between"
          >
            <span
              className="m-2"
            >
              GXC
            </span>
            <span
              className="m-2"
            >
              0.5438320375
            </span>
          </li>
          <li
            className="coins__item f f-justify-between"
          >
            <span
              className="m-2"
            >
              CRO
            </span>
            <span
              className="m-2"
            >
              0.0126929397
            </span>
          </li>
          <li
            className="coins__item f f-justify-between"
          >
            <span
              className="m-2"
            >
              AION
            </span>
            <span
              className="m-2"
            >
              0.1129502402
            </span>
          </li>
          <li
            className="coins__item f f-justify-between"
          >
            <span
              className="m-2"
            >
              DGD
            </span>
            <span
              className="m-2"
            >
              15.9393693895
            </span>
          </li>
          <li
            className="coins__item f f-justify-between"
          >
            <span
              className="m-2"
            >
              POWR
            </span>
            <span
              className="m-2"
            >
              0.0804585486
            </span>
          </li>
          <li
            className="coins__item f f-justify-between"
          >
            <span
              className="m-2"
            >
              MONA
            </span>
            <span
              className="m-2"
            >
              0.4837438006
            </span>
          </li>
          <li
            className="coins__item f f-justify-between"
          >
            <span
              className="m-2"
            >
              XZC
            </span>
            <span
              className="m-2"
            >
              4.7010719112
            </span>
          </li>
          <li
            className="coins__item f f-justify-between"
          >
            <span
              className="m-2"
            >
              ELA
            </span>
            <span
              className="m-2"
            >
              2.1692777491
            </span>
          </li>
          <li
            className="coins__item f f-justify-between"
          >
            <span
              className="m-2"
            >
              WAX
            </span>
            <span
              className="m-2"
            >
              0.0335754424
            </span>
          </li>
          <li
            className="coins__item f f-justify-between"
          >
            <span
              className="m-2"
            >
              MCO
            </span>
            <span
              className="m-2"
            >
              1.9770977839
            </span>
          </li>
          <li
            className="coins__item f f-justify-between"
          >
            <span
              className="m-2"
            >
              RVN
            </span>
            <span
              className="m-2"
            >
              0.0109622188
            </span>
          </li>
          <li
            className="coins__item f f-justify-between"
          >
            <span
              className="m-2"
            >
              BNT
            </span>
            <span
              className="m-2"
            >
              0.4826516938
            </span>
          </li>
          <li
            className="coins__item f f-justify-between"
          >
            <span
              className="m-2"
            >
              DENT
            </span>
            <span
              className="m-2"
            >
              0.0010113376
            </span>
          </li>
          <li
            className="coins__item f f-justify-between"
          >
            <span
              className="m-2"
            >
              WAN
            </span>
            <span
              className="m-2"
            >
              0.2755000669
            </span>
          </li>
          <li
            className="coins__item f f-justify-between"
          >
            <span
              className="m-2"
            >
              PAY
            </span>
            <span
              className="m-2"
            >
              0.2510614165
            </span>
          </li>
          <li
            className="coins__item f f-justify-between"
          >
            <span
              className="m-2"
            >
              ETP
            </span>
            <span
              className="m-2"
            >
              0.5196599541
            </span>
          </li>
        </ul>
      </div>
    </div>
  </div>
</div>
`;
